Analyzing Spatial Segregation with Information Geometry
…
The second data input must be a demographic table with class in c('tbl_df', 'tbl', 'data.frame'), which I will refer colloquially to as a data frame. compx includes an example in detroit_race, giving racial demographic counts for each tract for decennial Censuses 1970, 1980, 1990, 2000, 2010. Due to changing questions and collection methods, only 1990 data and later is comparable with 2010. The demographic data was assembled and normalized by the Project on Diversity and Disparities at Brown University.

detroit_race

## # A tibble: 15,275 x 4
##        t    group     n       tract
##    <int>    <chr> <dbl>       <chr>
##  1  1970    Asian     6 26163500100
##  2  1970    Black     0 26163500100
##  3  1970 Hispanic     0 26163500100
##  4  1970    Other     0 26163500100
##  5  1970    White     0 26163500100
##  6  1980    Asian    23 26163500100
##  7  1980    Black     2 26163500100
##  8  1980 Hispanic    32 26163500100
##  9  1980    Other     1 26163500100
## 10  1980    White  4175 26163500100
## # ... with 15,265 more rows
…
When \(g = I\), the identity matrix, this formula reduces to \(d(q,r) \approx \lVert q-r \rVert\), the Euclidean distance. When \(g\) differs substantially from \(I\), we get more interesting behavior.

We can view the metric tensor \(g\) as encoding the information we need to measure distances based on information, rather than on geography alone. A related and important idea of the metric tensor is that it encodes variation  places where the components of the metric tensor are large correspond to boundary areas between different demographic clusters.

Computing the Metric Tensor

Because the metric tensor is fundamental to our approach, compx includes a function that computes it directly from tracts and appropriately keyed data. If the keyed data contains no column labeled t, then compx assumes that all data are from the same time period. The simplest case of data looks like this:

race_2010 <- detroit_race %>%
    filter(t == 2010) %>%
    select(-t)                 # remove the t column if not using it

race_2010

## # A tibble: 3,055 x 3
##       group     n       tract
##       <chr> <dbl>       <chr>
##  1    Asian     6 26163500100
##  2    Black  3603 26163500100
##  3 Hispanic    38 26163500100
##  4    Other    19 26163500100
##  5    White   366 26163500100
##  6    Asian    14 26163500200
##  7    Black  2931 26163500200
##  8 Hispanic    13 26163500200
##  9    Other    10 26163500200
## 10    White   233 26163500200
## # ... with 3,045 more rows
…
